<svg xmlns="http://www.w3.org/2000/svg" xmlns:xlink="http://www.w3.org/1999/xlink"
     width="239.236252pt" height="32.408907pt" viewBox="-.299738 -.244857 239.236252 32.408907">
<defs>
<path id="g1-0" d="M7.878456-2.749689C8.081694-2.749689 8.296887-2.749689 8.296887-2.988792S8.081694-3.227895 7.878456-3.227895H1.41071C1.207472-3.227895 .992279-3.227895 .992279-2.988792S1.207472-2.749689 1.41071-2.749689H7.878456Z"/>
<path id="g4-43" d="M4.770112-2.761644H8.069738C8.237111-2.761644 8.452304-2.761644 8.452304-2.976837C8.452304-3.203985 8.249066-3.203985 8.069738-3.203985H4.770112V-6.503611C4.770112-6.670984 4.770112-6.886177 4.554919-6.886177C4.327771-6.886177 4.327771-6.682939 4.327771-6.503611V-3.203985H1.028144C.860772-3.203985 .645579-3.203985 .645579-2.988792C.645579-2.761644 .848817-2.761644 1.028144-2.761644H4.327771V.537983C4.327771 .705355 4.327771 .920548 4.542964 .920548C4.770112 .920548 4.770112 .71731 4.770112 .537983V-2.761644Z"/>
<path id="g4-61" d="M8.069738-3.873474C8.237111-3.873474 8.452304-3.873474 8.452304-4.088667C8.452304-4.315816 8.249066-4.315816 8.069738-4.315816H1.028144C.860772-4.315816 .645579-4.315816 .645579-4.100623C.645579-3.873474 .848817-3.873474 1.028144-3.873474H8.069738ZM8.069738-1.649813C8.237111-1.649813 8.452304-1.649813 8.452304-1.865006C8.452304-2.092154 8.249066-2.092154 8.069738-2.092154H1.028144C.860772-2.092154 .645579-2.092154 .645579-1.876961C.645579-1.649813 .848817-1.649813 1.028144-1.649813H8.069738Z"/>
<path id="g3-49" d="M2.502615-5.076961C2.502615-5.292154 2.486675-5.300125 2.271482-5.300125C1.944707-4.98132 1.522291-4.790037 .765131-4.790037V-4.527024C.980324-4.527024 1.41071-4.527024 1.872976-4.742217V-.653549C1.872976-.358655 1.849066-.263014 1.091905-.263014H.812951V0C1.139726-.02391 1.825156-.02391 2.183811-.02391S3.235866-.02391 3.56264 0V-.263014H3.283686C2.526526-.263014 2.502615-.358655 2.502615-.653549V-5.076961Z"/>
<path id="g3-50" d="M2.247572-1.625903C2.375093-1.745455 2.709838-2.008468 2.83736-2.12005C3.331507-2.574346 3.801743-3.012702 3.801743-3.737983C3.801743-4.686426 3.004732-5.300125 2.008468-5.300125C1.052055-5.300125 .422416-4.574844 .422416-3.865504C.422416-3.474969 .73325-3.419178 .844832-3.419178C1.012204-3.419178 1.259278-3.53873 1.259278-3.841594C1.259278-4.25604 .860772-4.25604 .765131-4.25604C.996264-4.837858 1.530262-5.037111 1.920797-5.037111C2.662017-5.037111 3.044583-4.407472 3.044583-3.737983C3.044583-2.909091 2.462765-2.303362 1.522291-1.338979L.518057-.302864C.422416-.215193 .422416-.199253 .422416 0H3.57061L3.801743-1.42665H3.55467C3.53076-1.267248 3.466999-.868742 3.371357-.71731C3.323537-.653549 2.717808-.653549 2.590286-.653549H1.171606L2.247572-1.625903Z"/>
<path id="g3-51" d="M2.016438-2.662017C2.646077-2.662017 3.044583-2.199751 3.044583-1.362889C3.044583-.366625 2.478705-.071731 2.056289-.071731C1.617933-.071731 1.020174-.231133 .74122-.653549C1.028144-.653549 1.227397-.836862 1.227397-1.099875C1.227397-1.354919 1.044085-1.538232 .789041-1.538232C.573848-1.538232 .350685-1.40274 .350685-1.083935C.350685-.326775 1.163636 .167372 2.072229 .167372C3.132254 .167372 3.873474-.565878 3.873474-1.362889C3.873474-2.024408 3.347447-2.630137 2.534496-2.805479C3.164134-3.028643 3.634371-3.57061 3.634371-4.208219S2.917061-5.300125 2.088169-5.300125C1.235367-5.300125 .589788-4.837858 .589788-4.23213C.589788-3.937235 .789041-3.809714 .996264-3.809714C1.243337-3.809714 1.40274-3.985056 1.40274-4.216189C1.40274-4.511083 1.147696-4.622665 .972354-4.630635C1.307098-5.068991 1.920797-5.092902 2.064259-5.092902C2.271482-5.092902 2.87721-5.029141 2.87721-4.208219C2.87721-3.650311 2.646077-3.315567 2.534496-3.188045C2.295392-2.940971 2.11208-2.925031 1.625903-2.893151C1.474471-2.885181 1.41071-2.87721 1.41071-2.773599C1.41071-2.662017 1.482441-2.662017 1.617933-2.662017H2.016438Z"/>
<path id="g3-53" d="M1.115816-4.479203C1.219427-4.447323 1.538232-4.367621 1.872976-4.367621C2.86924-4.367621 3.474969-5.068991 3.474969-5.188543C3.474969-5.276214 3.419178-5.300125 3.379328-5.300125C3.363387-5.300125 3.347447-5.300125 3.275716-5.260274C2.964882-5.140722 2.598257-5.045081 2.16787-5.045081C1.697634-5.045081 1.307098-5.164633 1.060025-5.260274C.980324-5.300125 .964384-5.300125 .956413-5.300125C.852802-5.300125 .852802-5.212453 .852802-5.068991V-2.733748C.852802-2.590286 .852802-2.494645 .980324-2.494645C1.044085-2.494645 1.067995-2.526526 1.107846-2.590286C1.203487-2.709838 1.506351-3.116314 2.183811-3.116314C2.630137-3.116314 2.84533-2.749689 2.917061-2.598257C3.052553-2.311333 3.068493-1.944707 3.068493-1.633873C3.068493-1.338979 3.060523-.908593 2.83736-.557908C2.685928-.318804 2.367123-.071731 1.944707-.071731C1.42665-.071731 .916563-.398506 .73325-.916563C.757161-.908593 .804981-.908593 .812951-.908593C1.036115-.908593 1.211457-1.052055 1.211457-1.299128C1.211457-1.594022 .980324-1.697634 .820922-1.697634C.67746-1.697634 .422416-1.617933 .422416-1.275218C.422416-.557908 1.044085 .167372 1.960648 .167372C2.956912 .167372 3.801743-.605729 3.801743-1.594022C3.801743-2.518555 3.132254-3.339477 2.191781-3.339477C1.793275-3.339477 1.41868-3.211955 1.115816-2.940971V-4.479203Z"/>
<path id="g3-54" d="M1.099875-2.638107C1.099875-3.299626 1.155666-3.881445 1.44259-4.367621C1.681694-4.766127 2.088169-5.092902 2.590286-5.092902C2.749689-5.092902 3.116314-5.068991 3.299626-4.790037C2.940971-4.774097 2.909091-4.503113 2.909091-4.415442C2.909091-4.176339 3.092403-4.040847 3.283686-4.040847C3.427148-4.040847 3.658281-4.128518 3.658281-4.431382C3.658281-4.909589 3.299626-5.300125 2.582316-5.300125C1.474471-5.300125 .350685-4.24807 .350685-2.526526C.350685-.366625 1.354919 .167372 2.12802 .167372C2.510585 .167372 2.925031 .063761 3.283686-.278954C3.602491-.589788 3.873474-.924533 3.873474-1.617933C3.873474-2.662017 3.084433-3.395268 2.199751-3.395268C1.625903-3.395268 1.283188-3.028643 1.099875-2.638107ZM2.12802-.071731C1.705604-.071731 1.44259-.366625 1.323039-.589788C1.139726-.948443 1.123786-1.490411 1.123786-1.793275C1.123786-2.582316 1.554172-3.172105 2.16787-3.172105C2.566376-3.172105 2.805479-2.964882 2.956912-2.685928C3.124284-2.391034 3.124284-2.032379 3.124284-1.625903S3.124284-.868742 2.964882-.581818C2.757659-.215193 2.478705-.071731 2.12802-.071731Z"/>
<path id="g3-55" d="M4.032877-4.853798C4.104608-4.941469 4.104608-4.95741 4.104608-5.132752H2.080199C1.880946-5.132752 1.633873-5.140722 1.43462-5.156663C1.020174-5.188543 1.012204-5.260274 .988294-5.387796H.74122L.470237-3.706102H.71731C.73325-3.825654 .820922-4.375592 .932503-4.439352C1.020174-4.479203 1.617933-4.479203 1.737484-4.479203H3.427148L2.606227-3.379328C1.697634-2.16787 1.506351-.908593 1.506351-.278954C1.506351-.199253 1.506351 .167372 1.880946 .167372S2.255542-.191283 2.255542-.286924V-.669489C2.255542-1.817186 2.446824-2.757659 2.83736-3.275716L4.032877-4.853798Z"/>
<path id="g2-58" d="M2.199751-.573848C2.199751-.920548 1.912827-1.159651 1.625903-1.159651C1.279203-1.159651 1.0401-.872727 1.0401-.585803C1.0401-.239103 1.327024 0 1.613948 0C1.960648 0 2.199751-.286924 2.199751-.573848Z"/>
<path id="g2-67" d="M8.930511-8.308842C8.930511-8.416438 8.846824-8.416438 8.822914-8.416438S8.751183-8.416438 8.655542-8.296887L7.830635-7.292653C7.412204-8.009963 6.75467-8.416438 5.858032-8.416438C3.275716-8.416438 .597758-5.798257 .597758-2.988792C.597758-.992279 1.996513 .251059 3.741968 .251059C4.698381 .251059 5.535243-.155417 6.228643-.74122C7.268742-1.613948 7.579577-2.773599 7.579577-2.86924C7.579577-2.976837 7.483935-2.976837 7.44807-2.976837C7.340473-2.976837 7.328518-2.905106 7.304608-2.857285C6.75467-.992279 5.140722-.095641 3.945205-.095641C2.677958-.095641 1.578082-.908593 1.578082-2.606227C1.578082-2.988792 1.697634-5.068991 3.048568-6.635118C3.706102-7.400249 4.829888-8.069738 5.965629-8.069738C7.280697-8.069738 7.866501-6.981818 7.866501-5.762391C7.866501-5.451557 7.830635-5.188543 7.830635-5.140722C7.830635-5.033126 7.950187-5.033126 7.986052-5.033126C8.117559-5.033126 8.129514-5.045081 8.177335-5.260274L8.930511-8.308842Z"/>
<path id="g2-80" d="M3.53873-3.801743H5.547198C7.197011-3.801743 8.846824-5.021171 8.846824-6.38406C8.846824-7.316563 8.057783-8.16538 6.551432-8.16538H2.857285C2.630137-8.16538 2.52254-8.16538 2.52254-7.938232C2.52254-7.81868 2.630137-7.81868 2.809465-7.81868C3.53873-7.81868 3.53873-7.723039 3.53873-7.591532C3.53873-7.567621 3.53873-7.49589 3.490909-7.316563L1.876961-.884682C1.769365-.466252 1.745455-.3467 .908593-.3467C.681445-.3467 .561893-.3467 .561893-.131507C.561893 0 .669489 0 .74122 0C.968369 0 1.207472-.02391 1.43462-.02391H2.833375C3.060523-.02391 3.311582 0 3.53873 0C3.634371 0 3.765878 0 3.765878-.227148C3.765878-.3467 3.658281-.3467 3.478954-.3467C2.761644-.3467 2.749689-.430386 2.749689-.549938C2.749689-.609714 2.761644-.6934 2.773599-.753176L3.53873-3.801743ZM4.399502-7.352428C4.507098-7.79477 4.554919-7.81868 5.021171-7.81868H6.204732C7.10137-7.81868 7.84259-7.531756 7.84259-6.635118C7.84259-6.324284 7.687173-5.308095 7.137235-4.758157C6.933998-4.542964 6.360149-4.088667 5.272229-4.088667H3.58655L4.399502-7.352428Z"/>
<path id="g2-84" d="M4.985305-7.292653C5.057036-7.579577 5.080946-7.687173 5.260274-7.734994C5.355915-7.758904 5.750436-7.758904 6.001494-7.758904C7.197011-7.758904 7.758904-7.711083 7.758904-6.77858C7.758904-6.599253 7.711083-6.144956 7.639352-5.702615L7.627397-5.559153C7.627397-5.511333 7.675218-5.439601 7.746949-5.439601C7.866501-5.439601 7.866501-5.499377 7.902366-5.69066L8.249066-7.806725C8.272976-7.914321 8.272976-7.938232 8.272976-7.974097C8.272976-8.105604 8.201245-8.105604 7.962142-8.105604H1.422665C1.147696-8.105604 1.135741-8.093649 1.06401-7.878456L.334745-5.726526C.32279-5.702615 .286924-5.571108 .286924-5.559153C.286924-5.499377 .334745-5.439601 .406476-5.439601C.502117-5.439601 .526027-5.487422 .573848-5.642839C1.075965-7.089415 1.327024-7.758904 2.917061-7.758904H3.718057C4.004981-7.758904 4.124533-7.758904 4.124533-7.627397C4.124533-7.591532 4.124533-7.567621 4.064757-7.352428L2.462765-.932503C2.343213-.466252 2.319303-.3467 1.052055-.3467C.753176-.3467 .669489-.3467 .669489-.119552C.669489 0 .800996 0 .860772 0C1.159651 0 1.470486-.02391 1.769365-.02391H3.634371C3.93325-.02391 4.25604 0 4.554919 0C4.686426 0 4.805978 0 4.805978-.227148C4.805978-.3467 4.722291-.3467 4.411457-.3467C3.335492-.3467 3.335492-.454296 3.335492-.633624C3.335492-.645579 3.335492-.729265 3.383313-.920548L4.985305-7.292653Z"/>
<path id="g0-18" d="M8.368618 28.08269C8.368618 28.034869 8.344707 28.010959 8.320797 27.975093C7.878456 27.532752 7.07746 26.731756 6.276463 25.440598C4.351681 22.356164 3.478954 18.470735 3.478954 13.867995C3.478954 10.652055 3.90934 6.503611 5.881943 2.940971C6.826401 1.243337 7.806725 .263014 8.332752-.263014C8.368618-.298879 8.368618-.32279 8.368618-.358655C8.368618-.478207 8.284932-.478207 8.117559-.478207S7.926276-.478207 7.746949-.298879C3.741968 3.347447 2.486675 8.822914 2.486675 13.85604C2.486675 18.554421 3.56264 23.288667 6.599253 26.863263C6.838356 27.138232 7.292653 27.628394 7.782814 28.05878C7.926276 28.202242 7.950187 28.202242 8.117559 28.202242S8.368618 28.202242 8.368618 28.08269Z"/>
<path id="g0-19" d="M6.300374 13.867995C6.300374 9.169614 5.224408 4.435367 2.187796 .860772C1.948692 .585803 1.494396 .095641 1.004234-.334745C.860772-.478207 .836862-.478207 .669489-.478207C.526027-.478207 .418431-.478207 .418431-.358655C.418431-.310834 .466252-.263014 .490162-.239103C.908593 .191283 1.709589 .992279 2.510585 2.283437C4.435367 5.36787 5.308095 9.2533 5.308095 13.85604C5.308095 17.07198 4.877709 21.220423 2.905106 24.783064C1.960648 26.480697 .968369 27.472976 .466252 27.975093C.442341 28.010959 .418431 28.046824 .418431 28.08269C.418431 28.202242 .526027 28.202242 .669489 28.202242C.836862 28.202242 .860772 28.202242 1.0401 28.022914C5.045081 24.376588 6.300374 18.901121 6.300374 13.867995Z"/>
</defs>
<g fill="#222" stroke="#222" style="fill: var(--color, #222); stroke: var(--color, #222);" stroke-width="0.3" transform="matrix(1.13 0 0 1.13 -80.23 -65.539978)">
<use x="70.734745" y="58.2615" xlink:href="#g0-18"/>
<use x="79.535117" y="67.945294" xlink:href="#g2-67"/>
<use x="87.910163" y="69.738557" xlink:href="#g3-49"/>
<use x="92.144346" y="69.738557" xlink:href="#g3-49"/>
<use x="106.839297" y="67.945294" xlink:href="#g2-67"/>
<use x="115.214343" y="69.738557" xlink:href="#g3-49"/>
<use x="119.448526" y="69.738557" xlink:href="#g3-50"/>
<use x="79.535117" y="81.89299" xlink:href="#g2-67"/>
<use x="87.910163" y="83.686253" xlink:href="#g3-50"/>
<use x="92.144346" y="83.686253" xlink:href="#g3-49"/>
<use x="106.839297" y="81.89299" xlink:href="#g2-67"/>
<use x="115.214343" y="83.686253" xlink:href="#g3-50"/>
<use x="119.448526" y="83.686253" xlink:href="#g3-50"/>
<use x="124.180837" y="58.2615" xlink:href="#g0-19"/>
<use x="136.302039" y="75.118437" xlink:href="#g4-61"/>
<use x="148.72752" y="58.2615" xlink:href="#g0-18"/>
<use x="157.527892" y="67.945294" xlink:href="#g2-80"/>
<use x="165.07316" y="69.738557" xlink:href="#g3-50"/>
<use x="172.462138" y="67.945294" xlink:href="#g4-43"/>
<use x="184.223453" y="67.945294" xlink:href="#g2-80"/>
<use x="191.768721" y="69.738557" xlink:href="#g3-51"/>
<use x="206.463676" y="67.945294" xlink:href="#g2-84"/>
<use x="213.324681" y="69.738557" xlink:href="#g3-49"/>
<use x="220.71366" y="67.945294" xlink:href="#g4-43"/>
<use x="232.474975" y="67.945294" xlink:href="#g2-80"/>
<use x="240.020243" y="69.738557" xlink:href="#g3-53"/>
<use x="247.409221" y="67.945294" xlink:href="#g4-43"/>
<use x="259.170536" y="67.945294" xlink:href="#g2-80"/>
<use x="266.715804" y="69.738557" xlink:href="#g3-54"/>
<use x="157.773112" y="81.89299" xlink:href="#g2-84"/>
<use x="164.634117" y="83.686253" xlink:href="#g3-50"/>
<use x="172.023096" y="81.89299" xlink:href="#g1-0"/>
<use x="183.978256" y="81.89299" xlink:href="#g2-80"/>
<use x="191.523524" y="83.686253" xlink:href="#g3-55"/>
<use x="219.811464" y="81.89299" xlink:href="#g2-84"/>
<use x="226.67247" y="83.686253" xlink:href="#g3-50"/>
<use x="234.061448" y="81.89299" xlink:href="#g4-43"/>
<use x="245.822763" y="81.89299" xlink:href="#g2-80"/>
<use x="253.368031" y="83.686253" xlink:href="#g3-53"/>
<use x="271.448119" y="58.2615" xlink:href="#g0-19"/>
<use x="280.248491" y="75.118437" xlink:href="#g2-58"/>
</g>
</svg>
